<?xml version="1.0" encoding="UTF-8" standalone="no"?>
<!-- Created with Inkscape (http://www.inkscape.org/) -->

<svg
   version="1.1"
   id="svg4882"
   width="200"
   height="200"
   viewBox="0 0 200 200"
   sodipodi:docname="calis-logo-white.svg"
   inkscape:version="1.1.2 (0a00cf5339, 2022-02-04)"
   xmlns:inkscape="http://www.inkscape.org/namespaces/inkscape"
   xmlns:sodipodi="http://sodipodi.sourceforge.net/DTD/sodipodi-0.dtd"
   xmlns="http://www.w3.org/2000/svg"
   xmlns:svg="http://www.w3.org/2000/svg"
   xmlns:rdf="http://www.w3.org/1999/02/22-rdf-syntax-ns#"
   xmlns:cc="http://creativecommons.org/ns#"
   xmlns:dc="http://purl.org/dc/elements/1.1/">
  <metadata
     id="metadata4888">
    <rdf:RDF>
      <cc:Work
         rdf:about="">
        <dc:format>image/svg+xml</dc:format>
        <dc:type
           rdf:resource="http://purl.org/dc/dcmitype/StillImage" />
      </cc:Work>
    </rdf:RDF>
  </metadata>
  <defs
     id="defs4886" />
  <sodipodi:namedview
     pagecolor="#ffffff"
     bordercolor="#666666"
     borderopacity="1"
     objecttolerance="10"
     gridtolerance="10"
     guidetolerance="10"
     inkscape:pageopacity="0"
     inkscape:pageshadow="2"
     inkscape:window-width="1920"
     inkscape:window-height="1020"
     id="namedview4884"
     showgrid="false"
     showguides="true"
     inkscape:guide-bbox="true"
     inkscape:zoom="1.4142136"
     inkscape:cx="-70.003569"
     inkscape:cy="136.11805"
     inkscape:window-x="0"
     inkscape:window-y="0"
     inkscape:window-maximized="1"
     inkscape:current-layer="layer1"
     inkscape:snap-global="false"
     inkscape:pagecheckerboard="0" />
  <g
     inkscape:groupmode="layer"
     id="layer7"
     inkscape:label="bleu"
     transform="translate(0,-120)" />
  <g
     inkscape:groupmode="layer"
     id="layer6"
     inkscape:label="blanc"
     transform="translate(0,-120)" />
  <g
     inkscape:groupmode="layer"
     id="layer2"
     inkscape:label="Fond"
     transform="translate(0,-120)" />
  <g
     inkscape:groupmode="layer"
     id="layer5"
     inkscape:label="fond"
     transform="translate(0,-120)" />
  <g
     inkscape:groupmode="layer"
     id="layer1"
     inkscape:label="Layer 1"
     transform="translate(0,-120)">
    <ellipse
       ry="71.998177"
       rx="73.154533"
       cy="220"
       cx="100"
       id="path4826"
       style="fill:none;fill-opacity:1;stroke:none;stroke-width:10.4242;stroke-linecap:round;stroke-miterlimit:4;stroke-dasharray:none;stroke-opacity:1" />
    <ellipse
       ry="74.25769"
       rx="71.729706"
       cy="220"
       cx="100"
       id="path4791"
       style="fill:none;fill-opacity:1;stroke:#ffffff;stroke-width:9.43664;stroke-linecap:round;stroke-miterlimit:4;stroke-dasharray:none;stroke-opacity:1" />
    <g
       transform="matrix(0.78668536,0,0,0.78925498,-25.031479,94.078408)"
       style="fill:#ffffff;fill-opacity:1"
       id="g9501">
      <path
         inkscape:connector-curvature="0"
         id="path9482"
         d="M 159.73633,32.845703 C 79.364042,32.35493 4.99515,101.752 41.257812,210.98242 l 41.123047,-44.12304 c 9.240107,10.93436 17.599592,18.14247 25.785161,22.32031 8.36089,4.26732 16.78797,5.12438 24.1289,3.11133 14.68187,-4.02611 24.06344,-16.94877 33.03906,-28.34766 8.97563,-11.3989 17.59424,-21.26319 25.26758,-23.40039 3.83667,-1.0686 7.67129,-0.90225 13.3086,2.06836 5.6373,2.97061 12.80835,9.03998 21.27343,19.47656 a 7.1156722,7.1156722 0 0 0 0.91407,0.95508 c -27.58847,39.47426 12.36142,99.45571 -158.804691,88.7207 96.069351,83.18266 259.770761,8.31651 209.318361,-143.65625 l -41.125,44.1211 c -8.91129,-10.83749 -16.98474,-18.01422 -24.94141,-22.20704 -6.1357,-3.23324 -12.35899,-4.54391 -18.14258,-4.14648 -1.92786,0.13248 -3.80632,0.45462 -5.61718,0.95898 -14.48689,4.03493 -23.67414,16.93175 -32.63086,28.30664 -8.95673,11.3749 -17.63428,21.23704 -25.62305,23.42774 -3.99439,1.09535 -8.05633,0.91826 -13.89648,-2.0625 -5.84016,-2.98076 -13.21732,-9.04076 -21.927739,-19.45703 a 7.1156722,7.1156722 0 0 0 -0.960937,-0.96875 C 119.38006,116.60625 79.36027,56.588166 250.57422,67.326172 223.55471,43.931048 191.18635,33.037745 159.73633,32.845703 Z"
         style="fill:#ffffff;fill-opacity:1;stroke:none;stroke-width:1px;stroke-linecap:butt;stroke-linejoin:miter;stroke-opacity:1" />
    </g>
    <path
       sodipodi:nodetypes="ccc"
       inkscape:connector-curvature="0"
       id="path9572"
       d="M 12.573441,238.58016 C 70.134956,194.08285 17.06889,129.73302 148.83044,141.46363 35.593797,102.53097 1.2848047,195.9599 12.573441,238.58016 Z"
       style="opacity:0.102;fill:#fbffff;fill-opacity:1;stroke:none;stroke-width:0.74522px;stroke-linecap:butt;stroke-linejoin:miter;stroke-opacity:1" />
    <path
       sodipodi:nodetypes="ccc"
       inkscape:connector-curvature="0"
       id="path9572-3"
       d="M 188.49877,201.93706 C 130.93726,246.43436 184.00333,310.78419 52.241788,299.05359 165.47842,337.98624 199.78741,244.55731 188.49877,201.93706 Z"
       style="opacity:0.102;fill:#fbffff;fill-opacity:1;stroke:none;stroke-width:0.74522px;stroke-linecap:butt;stroke-linejoin:miter;stroke-opacity:1" />
  </g>
  <g
     inkscape:groupmode="layer"
     id="layer3"
     inkscape:label="halo"
     transform="translate(0,-120)" />
  <g
     inkscape:groupmode="layer"
     id="layer4"
     inkscape:label="morphing"
     transform="translate(0,-120)" />
</svg>
